<svg width="40" height="40" viewBox="0 0 40 40" fill="none" xmlns="http://www.w3.org/2000/svg">
    <circle cx="20" cy="20" r="20" fill="#F7F7F8"/>
    <path d="M27 13H13C11.8954 13 11 13.8059 11 14.8V27.2C11 28.1941 11.8954 29 13 29H27C28.1046 29 29 28.1941 29 27.2V14.8C29 13.8059 28.1046 13 27 13Z" stroke="#445769" stroke-width="2" stroke-linecap="round" stroke-linejoin="round"/>
    <path d="M24 11V14.6" stroke="#445769" stroke-width="2" stroke-linecap="round" stroke-linejoin="round"/>
    <path d="M16 11V14.6" stroke="#445769" stroke-width="2" stroke-linecap="round" stroke-linejoin="round"/>
    <path d="M11 18H29" stroke="#445769" stroke-width="2" stroke-linecap="round" stroke-linejoin="round"/>
</svg>
